Chapter 4 R Packages | Data Visualisation geom Encyclopedia
…
4.6 Time series dataset

library(denguedatahub)
srilanka_weekly_data

## # A tibble: 21,934 × 6
##     year  week start.date end.date  
##  * <dbl> <dbl> <date>     <date>    
##  1  2006    52 2006-12-23 2006-12-29
##  2  2006    52 2006-12-23 2006-12-29
##  3  2006    52 2006-12-23 2006-12-29
##  4  2006    52 2006-12-23 2006-12-29
##  5  2006    52 2006-12-23 2006-12-29
##  6  2006    52 2006-12-23 2006-12-29
##  7  2006    52 2006-12-23 2006-12-29
##  8  2006    52 2006-12-23 2006-12-29
##  9  2006    52 2006-12-23 2006-12-29
## 10  2006    52 2006-12-23 2006-12-29
## # ℹ 21,924 more rows
## # ℹ 2 more variables: district <chr>,
## #   cases <dbl>
…
